{
    "1": {
        "method": "addColumn",
        "params": [
            "downloads_files",
            {
                "name": "file_polliwog_long_version",
                "type": "BIGINT",
                "length": 20,
                "decimals": null,
                "values": null,
                "allow_null": true,
                "default": null,
                "comment": "",
                "unsigned": true,
                "zerofill": false,
                "auto_increment": false,
                "binary": false
            }
        ]
    }
}