{
    "application_title": "Polliwog",
    "app_author": "Michael S. Edwards",
    "app_directory": "polliwog",
    "app_protected": 0,
    "app_website": "http:\/\/codingjungle.com",
    "app_update_check": "http:\/\/codingjungle.com\/applications\/polliwog\/interface\/rest\/rest.php?type=version&key=8"
}