{
    "polliwog_purchases": {
        "name": "polliwog_purchases",
        "columns": {
            "purchases_action": {
                "allow_null": true,
                "auto_increment": false,
                "binary": false,
                "comment": "action",
                "decimals": null,
                "default": null,
                "length": 255,
                "name": "purchases_action",
                "type": "VARCHAR",
                "unsigned": false,
                "values": [],
                "zerofill": false
            },
            "purchases_file": {
                "allow_null": true,
                "auto_increment": false,
                "binary": false,
                "comment": "The ID number of the file in the IPS Marketplace.",
                "decimals": null,
                "default": null,
                "length": 255,
                "name": "purchases_file",
                "type": "INT",
                "unsigned": false,
                "values": [],
                "zerofill": false
            },
            "purchases_cust": {
                "allow_null": true,
                "auto_increment": false,
                "binary": false,
                "comment": "The ID number of the customer account on the IPS Marketplace.",
                "decimals": null,
                "default": null,
                "length": 255,
                "name": "purchases_cust",
                "type": "INT",
                "unsigned": false,
                "values": [],
                "zerofill": false
            },
            "purchases_email": {
                "allow_null": true,
                "auto_increment": false,
                "binary": false,
                "comment": "The customer's email address.",
                "decimals": null,
                "default": null,
                "length": 255,
                "name": "purchases_email",
                "type": "VARCHAR",
                "unsigned": false,
                "values": [],
                "zerofill": false
            },
            "purchases_name": {
                "allow_null": true,
                "auto_increment": false,
                "binary": false,
                "comment": "The customer's display name.",
                "decimals": null,
                "default": null,
                "length": 255,
                "name": "purchases_name",
                "type": "VARCHAR",
                "unsigned": false,
                "values": [],
                "zerofill": false
            },
            "purchases_member_id": {
                "name": "purchases_member_id",
                "type": "INT",
                "length": 255,
                "decimals": null,
                "values": [],
                "allow_null": true,
                "default": null,
                "comment": "",
                "unsigned": false,
                "zerofill": false,
                "auto_increment": false,
                "binary": false
            },
            "purchases_date": {
                "name": "purchases_date",
                "type": "INT",
                "length": 255,
                "decimals": null,
                "values": [],
                "allow_null": true,
                "default": null,
                "comment": "",
                "unsigned": false,
                "zerofill": false,
                "auto_increment": false,
                "binary": false
            },
            "purchases_id": {
                "name": "purchases_id",
                "type": "BIGINT",
                "length": 20,
                "decimals": null,
                "values": [],
                "allow_null": false,
                "default": null,
                "comment": "The ID number of the purchase ID on the IPS Marketplace.",
                "unsigned": true,
                "zerofill": false,
                "auto_increment": true,
                "binary": false
            }
        },
        "indexes": {
            "PRIMARY": {
                "type": "primary",
                "name": "PRIMARY",
                "length": [
                    null
                ],
                "columns": [
                    "purchases_id"
                ]
            },
            "email": {
                "type": "key",
                "name": "email",
                "length": [
                    95,
                    95
                ],
                "columns": [
                    "purchases_email",
                    "purchases_name"
                ]
            }
        },
        "collation": "utf8mb4_unicode_ci",
        "engine": "InnoDB"
    },
    "polliwog_files": {
        "name": "polliwog_files",
        "columns": {
            "files_id": {
                "name": "files_id",
                "type": "BIGINT",
                "length": 20,
                "decimals": null,
                "values": [],
                "allow_null": false,
                "default": null,
                "comment": "ID Number",
                "unsigned": true,
                "zerofill": false,
                "auto_increment": true,
                "binary": false
            },
            "files_fid": {
                "name": "files_fid",
                "type": "INT",
                "length": 255,
                "decimals": null,
                "values": [],
                "allow_null": true,
                "default": null,
                "comment": "",
                "unsigned": false,
                "zerofill": false,
                "auto_increment": false,
                "binary": false
            },
            "files_ftitle": {
                "name": "files_ftitle",
                "type": "VARCHAR",
                "length": 255,
                "decimals": null,
                "values": [],
                "allow_null": true,
                "default": null,
                "comment": "",
                "unsigned": false,
                "zerofill": false,
                "auto_increment": false,
                "binary": false
            },
            "files_fnexus_id": {
                "name": "files_fnexus_id",
                "type": "INT",
                "length": 255,
                "decimals": null,
                "values": [],
                "allow_null": true,
                "default": null,
                "comment": "",
                "unsigned": false,
                "zerofill": false,
                "auto_increment": false,
                "binary": false
            },
            "files_news": {
                "name": "files_news",
                "type": "TEXT",
                "length": null,
                "decimals": null,
                "values": [],
                "allow_null": true,
                "default": null,
                "comment": "",
                "unsigned": false,
                "zerofill": false,
                "auto_increment": false,
                "binary": false
            },
            "files_short": {
                "name": "files_short",
                "type": "VARCHAR",
                "length": 255,
                "decimals": null,
                "values": [],
                "allow_null": true,
                "default": null,
                "comment": "",
                "unsigned": false,
                "zerofill": false,
                "auto_increment": false,
                "binary": false
            },
            "files_long": {
                "name": "files_long",
                "type": "INT",
                "length": 255,
                "decimals": null,
                "values": [],
                "allow_null": true,
                "default": null,
                "comment": "",
                "unsigned": false,
                "zerofill": false,
                "auto_increment": false,
                "binary": false
            },
            "files_released": {
                "name": "files_released",
                "type": "INT",
                "length": 255,
                "decimals": null,
                "values": [],
                "allow_null": true,
                "default": null,
                "comment": "",
                "unsigned": false,
                "zerofill": false,
                "auto_increment": false,
                "binary": false
            },
            "files_updateurl": {
                "name": "files_updateurl",
                "type": "TEXT",
                "length": null,
                "decimals": null,
                "values": [],
                "allow_null": true,
                "default": null,
                "comment": "",
                "unsigned": false,
                "zerofill": false,
                "auto_increment": false,
                "binary": false
            }
        },
        "indexes": {
            "PRIMARY": {
                "type": "primary",
                "name": "PRIMARY",
                "columns": [
                    "files_id"
                ],
                "length": [
                    null
                ]
            }
        }
    }
}